@startuml
class AccountController {
    + AccountController(logger:ILogger<AccountController>, userManager:UserManager<AppUser>, roleManager:RoleManager<AppRole>, signInManager:SignInManager<AppUser>)
    + Index() : IActionResult
    + Login() : IActionResult
    + <<async>> Login(model:LoginVM) : Task<IActionResult>
    + SignUp() : IActionResult
    + <<async>> SignUp(model:UserAddVM) : Task<IActionResult>
    + <<async>> Logout() : Task<IActionResult>
    + AccessDenied() : IActionResult
}
class "ILogger`1"<T> {
}
class "UserManager`1"<T> {
}
class "RoleManager`1"<T> {
}
class "SignInManager`1"<T> {
}
Controller <|-- AccountController
AccountController --> "_logger<AccountController>" "ILogger`1"
AccountController --> "_userManager<AppUser>" "UserManager`1"
AccountController --> "_roleManager<AppRole>" "RoleManager`1"
AccountController --> "_signInManager<AppUser>" "SignInManager`1"
@enduml
